…
``` r
data("lidar")
```

Look at the data


``` r
lidar
```

```
## # A tibble: 221 × 2
##    range logratio
##    <dbl>    <dbl>
##  1   390  -0.0504
##  2   391  -0.0601
##  3   393  -0.0419
##  4   394  -0.0510
##  5   396  -0.0599
##  6   397  -0.0284
##  7   399  -0.0596
##  8   400  -0.0399
##  9   402  -0.0294
## 10   403  -0.0395
## # ℹ 211 more rows
```
…
* `crossv_mc` tries to be smart about memory – rather than repeating the dataset a bunch of times, it saves the data once and stores the indexes for each training / testing split using a resample object. This can be coerced to a dataframe, and can often be treated exactly like a dataframe.
Did this work? Yes!


``` r
cv_df |> pull(train) |> nth(3)
```

```
## # A tibble: 176 × 3
##    range logratio    id
##    <dbl>    <dbl> <int>
##  1   390  -0.0504     1
##  2   391  -0.0601     2
##  3   394  -0.0510     4
##  4   397  -0.0284     6
##  5   400  -0.0399     8
##  6   402  -0.0294     9
##  7   403  -0.0395    10
##  8   409  -0.0382    14
##  9   412  -0.0500    16
## 10   414  -0.0457    17
## # ℹ 166 more rows
```
…
